number,url,date
#344,https://mailchi.mp/cb383f6df466/kats-kable-341-a-bunch-of-great-longreads-from-the-2000s-10346906,02 Mar 2025
#343,https://mailchi.mp/6a6fecf7d190/kats-kable-341-a-bunch-of-great-longreads-from-the-2000s-10346173,12 Feb 2025
#342,https://mailchi.mp/705ae42fe113/kats-kable-341-a-bunch-of-great-longreads-from-the-2000s-10345898,04 Feb 2025
#341,https://mailchi.mp/6f8c009f9b3c/kats-kable-341-a-bunch-of-great-longreads-from-the-2000s,19 Jan 2025
#340,https://mailchi.mp/29f63f7e66d6/kats-kable-340-3d-printing-delicious-apples-and-a-new-year,06 Jan 2025
#339,https://mailchi.mp/9605cae325ae/kats-kable-339-unknown-cricketers-rewilding-in-india-and-how-physics-is-creating-new-math,19 Dec 2024
#338,https://mailchi.mp/08fa86b6ed3a/kats-kable-338-secret-regions-in-tibet-seaweed-foraging-and-airplane-crashes,08 Dec 2024
#337,https://mailchi.mp/21377708d6be/kats-kable-337-why-are-cats-weird-a-lovable-bird-and-our-guts-second-brain,03 Dec 2024
#336,https://mailchi.mp/b4c02600e950/kats-kable-336-parasites-and-immune-systems-semiconductor-fabrication-and-how-to-walk-better,24 Nov 2024
#335,https://mailchi.mp/f93ca15192ed/kats-kable-335-art-heists-birds-and-moths-and-stuff-about-advice-relationships,10 Nov 2024
#334,https://mailchi.mp/d56d289662cc/kats-kable-334-how-we-domesticated-horses-a-heart-wrenching-story-and-lovely-photography,27 Oct 2024
#333,https://mailchi.mp/c699b0e6a83a/kats-kable-332-an-abbreviated-edition-written-from-a-restaurant-10342587,16 Oct 2024
#332,https://mailchi.mp/d65865923662/kats-kable-332-an-abbreviated-edition-written-from-a-restaurant,09 Sep 2024
#331,https://mailchi.mp/594f47c9f2fe/kats-kable-331-its-been-a-while,01 Sep 2024
#330,https://mailchi.mp/d2b243eb10f9/kats-kable-330,22 Mar 2024
#329,https://mailchi.mp/e67c15f6f755/kats-kable-329,14 Mar 2024
#328,https://mailchi.mp/47123751cefb/kats-kable-328,03 Mar 2024
#327,https://mailchi.mp/23aaf5278b01/kats-kable-327,16 Dec 2023
#326,https://mailchi.mp/ac13b1926ca9/kats-kable-326-gorgeous-oyster-mushrooms-unlikely-wartime-bombers-and-silicon-vs-carbon-debates,28 Nov 2023
#325,https://mailchi.mp/78697d882b8f/kats-kable-325-why-salt-tastes-mysterious-an-island-of-cows-and-why-predicting-the-weather-is-really-hard,22 Nov 2023
#324,https://mailchi.mp/93df6b242249/kats-kable-324,15 Nov 2023
#323,https://mailchi.mp/6cd4de8e7bac/kats-kable-323,05 Nov 2023
#319,https://mailchi.mp/5bab8cffe9fa/kats-kable-319,03 Oct 2023
#318,https://mailchi.mp/b2abadf32724/kats-kable-318-a-concise-edition,18 Sep 2023
#317,https://mailchi.mp/143464d78cb2/kats-kable-317,10 Sep 2023
#316,https://mailchi.mp/776e904309b6/kats-kable-316,30 Aug 2023
#315,https://mailchi.mp/df827735ab13/kats-kable-315,20 Aug 2023
#314,https://mailchi.mp/cbdb08e5a901/kats-kable-314,13 Aug 2023
#313,https://mailchi.mp/0c78094996fd/kats-kable-313,06 Aug 2023
#312,https://mailchi.mp/3108f05598fa/kats-kable-312,23 Jul 2023
#311,https://mailchi.mp/2669d3baf561/kats-kable-311-seventh-anniversary,16 Jul 2023
#310,https://mailchi.mp/c117ecb55168/kats-kable-310,12 Jul 2023
#309,https://mailchi.mp/10a7d036362a/kats-kable-309,02 Jul 2023
#308,https://mailchi.mp/7288d93d23b4/kats-kable-308,25 Jun 2023
#307,https://mailchi.mp/1230e4b5b390/kats-kable-307,13 Jun 2023
#306,https://mailchi.mp/33c2cf2af0cb/kats-kable-306,07 Jun 2023
#305,https://mailchi.mp/38b62a7536e6/kats-kable-305,31 May 2023
#304,https://mailchi.mp/38128bf36331/kats-kable-304,24 May 2023
#303,https://mailchi.mp/b1f77a9e117f/kats-kable-303,10 May 2023
#302,https://mailchi.mp/87672740dc33/kats-kable-302,30 Apr 2023
#301,https://mailchi.mp/8159fbc0c7a5/kats-kable-301,15 Apr 2023
#300,https://mailchi.mp/dd2df2daef3f/kats-kable-300,03 Apr 2023
#299,https://mailchi.mp/7cdfde2e5373/kats-kable-299,27 Mar 2023
#298,https://mailchi.mp/7a41a5019d57/kats-kable-298,20 Mar 2023
#297,https://mailchi.mp/7c66b5f08ad7/kats-kable-297,12 Mar 2023
#296,https://mailchi.mp/b11e4e4643f6/kats-kable-296,26 Feb 2023
#295,https://mailchi.mp/c4bcf246f0bc/kats-kable-295,19 Feb 2023
#294,https://mailchi.mp/36360226cee7/kats-kable-294-back-from-my-break,12 Feb 2023
#293,https://mailchi.mp/910ec2af8968/kats-kable-293-last-issue-of-2022,13 Nov 2022
#292,https://mailchi.mp/dbebd3bd9aee/kats-kable-292,04 Nov 2022
#291,https://mailchi.mp/31af1a6b1728/kats-kable-291,26 Oct 2022
#290,https://mailchi.mp/1ec695073c98/kats-kable-290,19 Oct 2022
#289,https://mailchi.mp/1b1e7f8343f4/kats-kable-289,12 Oct 2022
#288,https://mailchi.mp/c1030be6ae23/kats-kable-288,02 Oct 2022
#287,https://mailchi.mp/1540aaa321c0/kats-kable-287,25 Sep 2022
#286,https://mailchi.mp/6439d3a0cf33/kats-kable-286,14 Sep 2022
#285,https://mailchi.mp/3b07716a3eae/kats-kable-285,06 Sep 2022
#284,https://mailchi.mp/a121b715c5d1/kats-kable-284,28 Aug 2022
#283,https://mailchi.mp/3907dbbe06e2/kats-kable-283,21 Aug 2022
#282,https://mailchi.mp/1a78cfb336d3/kats-kable-282,04 Aug 2022
#281,https://mailchi.mp/8b00472514d2/kats-kable-281,27 Jul 2022
#280,https://mailchi.mp/f845f15dc697/kats-kable-280-sixth-anniversary,17 Jul 2022
#279,https://mailchi.mp/01064bb74b09/kats-kable-279,13 Jul 2022
#278,https://mailchi.mp/e150624aefb7/kats-kable-278,06 Jul 2022
#277,https://mailchi.mp/d38bd06a4b4b/kats-kable-277,27 Jun 2022
#276,https://mailchi.mp/c1c828bfd6dc/kats-kable-276,15 Jun 2022
#275,https://mailchi.mp/f68b90d8be91/kats-kable-275,05 Jun 2022
#274,https://mailchi.mp/12bf0d033580/kats-kable-274,31 May 2022
#273,https://mailchi.mp/2e0212753eb5/kats-kable-273,25 May 2022
#272,https://mailchi.mp/2d48bd7a90b0/kats-kable-272,16 May 2022
#271,https://mailchi.mp/7cb7b05f7803/kats-kable-271,09 May 2022
#270,https://mailchi.mp/8bb086ee9570/kats-kable-270,28 Apr 2022
#269,https://mailchi.mp/281590031da1/kats-kable-269,18 Apr 2022
#268,https://mailchi.mp/7f2ca35b7d60/kats-kable-268,15 Apr 2022
#267,https://mailchi.mp/2b67031f95c9/kats-kable-267,05 Apr 2022
#266,https://mailchi.mp/0df4d9d81447/kats-kable-266,31 Mar 2022
#265,https://mailchi.mp/fdfe0e87a87f/kats-kable-265,24 Mar 2022
#264,https://mailchi.mp/5e65ef67ea4b/kats-kable-264,06 Mar 2022
#263,https://mailchi.mp/6183f5a56e75/kats-kable-263,27 Feb 2022
#262,https://mailchi.mp/10190fe51f5e/kats-kable-262,20 Feb 2022
#261,https://mailchi.mp/e741e5d95389/kats-kable-261,13 Feb 2022
#260,https://mailchi.mp/d5b59505e9f5/kats-kable-260,05 Feb 2022
#259,https://mailchi.mp/b666e4f63f1e/kats-kable-259,08 Jan 2022
#258,https://mailchi.mp/e01cd4a229b1/kats-kable-258,09 Dec 2021
#257,https://mailchi.mp/22f695c2292a/kats-kable-257,25 Nov 2021
#256,https://mailchi.mp/207beae15ca9/kats-kable-256,16 Nov 2021
#255,https://mailchi.mp/d12226428d26/kats-kable-255,29 Oct 2021
#254,https://mailchi.mp/16ed5ca4c7b6/kats-kable-254,21 Oct 2021
#253,https://mailchi.mp/89426d440588/kats-kable-253,12 Oct 2021
#252 - Cat's Special,https://mailchi.mp/847f8503b6c6/kats-kable-252-cats-special,02 Oct 2021
#251,https://mailchi.mp/083f390c8cea/kats-kable-251,29 Sep 2021
#250,https://mailchi.mp/58d67c675b31/kats-kable-250,19 Sep 2021
#249,https://mailchi.mp/ed07114e5f35/kats-kable-249,09 Sep 2021
#248,https://mailchi.mp/89fe48e446f0/kats-kable-248,02 Sep 2021
#247,https://mailchi.mp/1a559004e6ed/kats-kable-247,22 Aug 2021
#246,https://mailchi.mp/fc7e1bfe32c3/kats-kable-246,17 Aug 2021
#245,https://mailchi.mp/ba33a011d110/kats-kable-245,08 Aug 2021
#244,https://mailchi.mp/d7f2ae4ff731/kats-kable-244,01 Aug 2021
#243,https://mailchi.mp/aae4ac964525/kats-kable-243,23 Jul 2021
#242,https://mailchi.mp/25243ca6e617/kats-kable-242,06 Jul 2021
#241,https://mailchi.mp/4bbf6250a0c5/kats-kable-241,27 Jun 2021
#240,https://mailchi.mp/16eda5aeb4d7/kats-kable-240,19 Jun 2021
#239,https://mailchi.mp/db68f5d02285/kats-kable-239,29 Apr 2021
#238,https://mailchi.mp/cfc2a3d5b51f/kats-kable-238,18 Apr 2021
#237,https://mailchi.mp/193f18ec939e/kats-kable-237,03 Apr 2021
#236,https://mailchi.mp/6a818ebb4627/kats-kable-236,16 Mar 2021
#235,https://mailchi.mp/5affa6e3348a/kats-kable-235,02 Feb 2021
#234,https://mailchi.mp/47ccf0b3619b/kats-kable-234,22 Jan 2021
#233,https://mailchi.mp/d437c86483c7/kats-kable-233-an-abbreviated-edition,09 Jan 2021
#232,https://mailchi.mp/8a3fbfccc811/kats-kable-232,24 Dec 2020
#231,https://mailchi.mp/f99ecf3fa5ff/kats-kable-231,16 Dec 2020
#230,https://mailchi.mp/a4f7063bf318/kats-kable-230,06 Dec 2020
#229,https://mailchi.mp/bd9d52c80705/kats-kable-229,22 Nov 2020
#228,https://mailchi.mp/818d5e92571c/kats-kable-228,15 Nov 2020
#227,https://mailchi.mp/050c39f5b5c4/kats-kable-227,31 Oct 2020
#226,https://mailchi.mp/b35414d4af0f/kats-kable-226,14 Oct 2020
#225,https://mailchi.mp/f11085a039b9/kats-kable-225,15 Sep 2020
#224,https://mailchi.mp/2f3b4c59fb4c/kats-kable-224,30 Aug 2020
#223,https://mailchi.mp/e6896257a64c/kats-kable-223,13 Aug 2020
#222,https://mailchi.mp/35adf8ece922/kats-kable-222,01 Aug 2020
#221,https://mailchi.mp/0bd9cccb4f1a/kats-kable-221-abbreviated-edition,29 Jul 2020
#220,https://mailchi.mp/24ec5230c419/kats-kable-220-fourth-year-anniversary-edition,18 Jul 2020
#219,https://mailchi.mp/309d443b6b31/kats-kable-219,11 Jul 2020
#218,https://mailchi.mp/f71205c1ced4/kats-kable-218,04 Jul 2020
#217,https://mailchi.mp/60e6c172a059/kats-kable-217,27 Jun 2020
#216,https://mailchi.mp/1373977bf83f/kats-kable-216,20 Jun 2020
#215,https://mailchi.mp/6810ad4efe5d/kats-kable-215,13 Jun 2020
#214,https://mailchi.mp/9312f7ea606d/kats-kable-214,03 Jun 2020
#213,https://mailchi.mp/dd0c9369c1e0/kats-kable-213-an-abbreviated-edition,23 May 2020
#212,https://mailchi.mp/57e448043771/kats-kable-212,16 May 2020
#211,https://mailchi.mp/2bd2e6d9f830/kats-kable-211,10 May 2020
#210,https://mailchi.mp/e5e5701fd0fa/kats-kable-210,02 May 2020
#209,https://mailchi.mp/0c59928ebada/kats-kable-209-back-from-the-break,25 Apr 2020
#208,https://mailchi.mp/5f7ed822f903/kats-kable-208,28 Mar 2020
#207,https://mailchi.mp/311be6fa6502/kats-kable-207,21 Mar 2020
#206,https://mailchi.mp/ba52fad95700/kats-kable-206-love-in-the-time-of-coronavirus,14 Mar 2020
#205,https://mailchi.mp/abd31409467f/kats-kable-205,07 Mar 2020
#204,https://mailchi.mp/404885adece8/kats-kable-204-late-is-better-than-never,02 Mar 2020
#203,https://mailchi.mp/29e991d54a6d/kats-kable-203-an-abbreviated-edition,22 Feb 2020
#202,https://mailchi.mp/33dbbcf5c2e5/kats-kable-202,15 Feb 2020
#201,https://mailchi.mp/1eb82776885f/kats-kable-201,08 Feb 2020
#200,https://mailchi.mp/7d98f8128a65/kats-kable-200,01 Feb 2020
#199,https://mailchi.mp/cf036b711b5c/kats-kable-199,25 Jan 2020
#198,https://mailchi.mp/14b8ef881708/kats-kable-198,18 Jan 2020
#197,https://mailchi.mp/61a9a3897918/kats-kable-197-first-edition-of-the-new-year-but-no-different-than-usual,04 Jan 2020
#196,https://mailchi.mp/523fa2594378/kats-kable-196-from-home-base,28 Dec 2019
#195,https://mailchi.mp/68b581a633cc/kats-kable-195-an-abridged-edition,21 Dec 2019
#194,https://mailchi.mp/a41c87c6beb1/kats-kable-194,14 Dec 2019
#193,https://mailchi.mp/b6b7027ee517/kats-kable-193-american-elite-and-sugar-techs-lies-and-more,23 Nov 2019
#192,https://mailchi.mp/b3cb5da1df75/kats-kable-192-the-cat-gifs-are-back,16 Nov 2019
#191,https://mailchi.mp/615b8c22c1b2/kats-kable-191-brain-pickings-13-years-vegetarian-food-and-more,09 Nov 2019
#190,https://mailchi.mp/dc8f318366e3/kats-kable-190,02 Nov 2019
#189,https://mailchi.mp/b9ce02d90708/kats-kable-189-being-scooped-cutting-down-ghg-emissions-recovering-and-more,26 Oct 2019
#188,https://mailchi.mp/535e9fec35e8/kats-kable-188-epic-watch-reviews-internet-loneliness-and-more,19 Oct 2019
#187,https://mailchi.mp/dcd72bd7f943/kats-kable-187-women-in-physics-permaculture-in-india-gm-crops-in-ghana-and-more,12 Oct 2019
#186,https://mailchi.mp/e3a0efec5ff3/kats-kable-186-arctic-expeditions-reading-lessons-and-plants-that-are-returning,05 Oct 2019
#185,https://mailchi.mp/8a773740f303/kats-kable-185-silvopasture-carnivorous-plants-and-how-to-make-social-media-nice-again,29 Sep 2019
#184,https://mailchi.mp/dbca6ce97f64/kats-kable-184-chess-players-the-marcetti-constant-and-climate-strikes,14 Sep 2019
#183,https://mailchi.mp/fa54c84e370e/kats-kable-183,07 Sep 2019
#182,https://mailchi.mp/0e0e04c46509/kats-kable-182-the-cosmic-crisp-open-source-seeds-and-more-important-food-things,31 Aug 2019
#181,https://mailchi.mp/a145d6a56431/kats-kable-181-the-world-is-on-fire-are-we-gonna-do-anything-about-it,24 Aug 2019
#180,https://mailchi.mp/6f9f6e28701d/kats-kable-180-back-from-the-break,17 Aug 2019
#179,https://mailchi.mp/29d8d8242df3/kats-kable-179-its-been-three-years,20 July 2019
#178,https://mailchi.mp/97fae333c503/kats-kable-178-wimbledon-a-new-telegram-group-and-pistachios,13 July 2019
#177,https://mailchi.mp/cc0c8069ce43/kats-kable-177-personal-websites-and-blogs-on-burnout-and-bees,06 July 2019
#176,https://mailchi.mp/370b2753b9f0/kats-kable-176-basketball-privacy-creativity-and-of-course-obligatory-cricket,29 June 2019
#175,https://mailchi.mp/2bf74e1ab42a/kats-kable-175-electric-cars-costa-rica-and-carbon-and-federer-of-course,22 June 2019
#174,https://mailchi.mp/6d79358ed47f/kats-kable-174-athletic-performance-brandon-sanderson-aesthetic-watches,15 June 2019
#173,https://mailchi.mp/77040c8e6052/kats-kable-173-latex-scissors-and-environmental-crimes,08 June 2019
#172,https://mailchi.mp/aa2d6e6fed1a/kats-kable-172,02 June 2019
#171,https://mailchi.mp/aa222be7f5ce/kats-kable-171-being-good-enough-on-advice-and-on-animal-experiments-and-souls,25 May 2019
#170,https://mailchi.mp/5db8e24963c4/kats-kable-170-consumption-hedgehogs-foxes-and-hodgepodges,18 May 2019
#169,https://mailchi.mp/20183d96ecd1/kats-kable-169-clean-energy-money-happiness-and-silicon-valley,11 May 2019
#168,https://mailchi.mp/f8e6084a4f5c/kats-kable-168-forests-keyboard-research-and-anti-crispr,04 May 2019
#167,https://mailchi.mp/1dfff43ef447/kats-kable-167-dams-floating-subway-cars-and-don-quijote,28 Apr 2019
#166,https://mailchi.mp/408a5a94cf3f/kats-kable-166-kidnapping-insurance-bird-experiments-500-year-experiments,20 Apr 2019
#165,https://mailchi.mp/62a4f361c026/kats-kable-165,06 Apr 2019
#164,https://mailchi.mp/fa7e87b02918/kats-kable-164-wheat-fields-two-scary-stories-and-more,30 Mar 2019
#163,https://mailchi.mp/778654b71539/kats-kable-163,23 Mar 2019
#162,https://mailchi.mp/e71623786d3c/kats-kable-162,16 Mar 2019
#161,https://mailchi.mp/a747370ed66b/kats-kable-161,02 Mar 2019
#160,https://mailchi.mp/86e9488692b4/kats-kable-160,23 Feb 2019
#159,https://mailchi.mp/3dc4e0e14697/kats-kable-159-putting-the-letter-in-newsletter,16 Feb 2019
#158,https://mailchi.mp/6ca5376ac393/kats-kable-158-the-case-for-educating-women-the-best-marie-kondo-review-and-more,09 Feb 2019
#157,https://mailchi.mp/16dca40deaf7/kats-kable-157-tennis-craft-work-preserving-precious-violin-sounds-and-more,02 Feb 2019
#156,https://mailchi.mp/9eabf2596b9e/kats-kable-156,26 Jan 2019
#155,https://mailchi.mp/1d5dc2b2b6cc/kats-kable-155,19 Jan 2019
#154,https://mailchi.mp/dde4a16fa5b6/kats-kable-154-back-from-a-break,12 Jan 2019
#153,https://mailchi.mp/13463811e15a/kats-kable-153,15 Dec 2018
#152,https://mailchi.mp/195eff3ea3f1/kats-kable-152,08 Dec 2018
#151,https://mailchi.mp/2e1a80a02170/kats-kable-151,01 Dec 2018
#150,https://mailchi.mp/389f02048412/kats-kable-150,25 Nov 2018
#149,https://mailchi.mp/2ef9f38acf7c/kats-kable-149-flying-dandelion-seeds-skim-reading-marathons,17 Nov 2018
#148,https://mailchi.mp/9da87166e083/kats-kable-148,10 Nov 2018
#147,https://mailchi.mp/1bcfb2149049/kats-kable-147,03 Nov 2018
#146,https://mailchi.mp/8a5c55c6f555/kats-kable-146,27 Oct 2018
Climate Special #145,https://mailchi.mp/48acbadb7122/kats-kable-145-climate-special,23 Oct 2018
#144,https://mailchi.mp/62138416ba19/kats-kable-144,20 Oct 2018
Design Special #143,https://mailchi.mp/6d4c3d8ca82e/kats-kable-143-design-special,16 Oct 2018
#142,https://mailchi.mp/ffcad7fbe389/kats-kable-142,13 Oct 2018
#141,https://mailchi.mp/1a8e5908c448/kats-kable-141,06 Oct 2018
#140,https://mailchi.mp/7681bf7ec797/kats-kable-140,29 Sep 2018
Images Special #139,https://mailchi.mp/553e2d8acd9f/kats-kable-139-images-special,25 Sep 2018
#138,https://mailchi.mp/d6d3a9baa1f7/kats-kable-138,22 Sep 2018
Food Special #137,https://mailchi.mp/0364bd82636c/kats-kable-137-food-special,18 Sep 2018
#136,https://mailchi.mp/91ed08c98afc/kats-kable-136-tennis-fantasy-magic-and-more,15 Sep 2018
#135,https://mailchi.mp/bf3598343f7c/kats-kable-135,08 Sep 2018
#134,https://mailchi.mp/2f2ce6974e33/kats-kable-134,01 Sep 2018
#133,https://mailchi.mp/060a3f48bae0/kats-kable-133,25 Aug 2018
#132,https://mailchi.mp/071dfba13153/kats-kable-132,18 Aug 2018
Fashion Special #131,https://mailchi.mp/74cb3ff45dcd/kats-kable-131-fashion-special,07 Aug 2018
#130,https://mailchi.mp/c7f1bd9534d3/kats-kable-130-rarity-fair,04 Aug 2018
#129,https://mailchi.mp/c735a06c5794/kats-kable-129-hastefully-and-tastefully-curated,28 July 2018
#128,https://mailchi.mp/bb5e29f00166/kats-kable-128,21 July 2018
(Two Year Anniversary) #127,https://mailchi.mp/3b325121c718/kats-kable-127-its-been-two-years,14 July 2018
#126,https://mailchi.mp/1c558bd6714e/kats-kable-126,07 July 2018
#125,https://mailchi.mp/a1b7c2de4783/kats-kable-125,10 June 2018
#124,https://mailchi.mp/6600ca938d0c/kats-kable-124-better-late-than-never,03 June 2018
#123,https://mailchi.mp/96ae9292d6dc/kats-kable-123-im-out-and-about,26 May 2018
#122,https://mailchi.mp/ae785951d8a3/kats-kable-122-a-whole-lot-of-nature,19 May 2018
#121,https://mailchi.mp/cfb2c54119c3/kats-kable-121-square-eleven,12 May 2018
#120,https://mailchi.mp/626112016f58/kats-kable-120,05 May 2018
#119,https://mailchi.mp/6b75173070d5/kats-kable-119-to-boldly-go,28 Apr 2018
Literature Special #118,https://mailchi.mp/9cbecb70af99/kats-kable-118-literature-special,24 Apr 2018
#117,https://mailchi.mp/c70fb1bab0ea/kats-kable-117-busyness-as-usual,21 Apr 2018
#116,https://mailchi.mp/9c2001a234e4/kats-kable-116-floating-along,14 Apr 2018
#115,https://mailchi.mp/3576b336e063/kats-kable-115,07 Apr 2018
#114,https://mailchi.mp/d78e7ba6bde0/kats-kable-114-im-on-holiday,31 Mar 2018
#113,https://mailchi.mp/77dea9111b04/kats-kable-113-its-prime-time-again,24 Mar 2018
#112,https://mailchi.mp/865448c600c4/kats-kable-112-the-internet-google-translate-cricket-and-more,17 Mar 2018
#111,https://mailchi.mp/31f4211d59b3/111-dun-dun-dun-one-one-one,10 Mar 2018
#110,https://mailchi.mp/fb1bff93202c/110-just-keep-reading,03 Mar 2018
#109,https://mailchi.mp/c8e81c300eb7/109-twin-primes-end-for-a-while,24 Feb 2018
#108,https://mailchi.mp/84ec32dba7c9/108-another-auspicious-number,17 Feb 2018
Music Special #107,https://mailchi.mp/fdd2b98c5bd3/107-music-special-nr-3,13 Feb 2018
#106,https://mailchi.mp/e51ee9d77c0c/106-trash-wars-yard-sales-growing-old-and-more,10 Feb 2018
Research Special #105,https://mailchi.mp/f96122448d47/105-interesting-research-special,06 Feb 2018
#104,https://mailchi.mp/410fc796f82a/104-note-taking-phds-star-wars-and-more,03 Feb 2018
#103,https://mailchi.mp/6d4cbea1db89/103-never-too-many-good-ideas,27 Jan 2018
Fruits Special #102,https://mailchi.mp/037ffbfb47c6/102-fruits-special-edition,23 Jan 2018
#101,https://mailchi.mp/361c9e95a37f/101-back-from-a-break,20 Jan 2018
#100,https://mailchi.mp/eeaa40a070cb/100,31 Dec 2017
#99,https://mailchi.mp/33458b99ea33/99,30 Dec 2017
#98,https://mailchi.mp/989fd5878683/98,23 Dec 2017
#97,https://mailchi.mp/e498297dd00f/97-ten-good-longform-pieces,16 Dec 2017
#96,https://mailchi.mp/5bf9628ce161/96,09 Dec 2017
Food Special #95,https://mailchi.mp/8560bea6c990/95-food-special,05 Dec 2017
#94,https://mailchi.mp/f42d7b92d9c9/94,02 Dec 2017
#93,https://mailchi.mp/210634909469/93,25 Nov 2017
#92,https://mailchi.mp/fbdbcfe84bd7/92,18 Nov 2017
#91,https://mailchi.mp/4ae3dc4a613f/91,11 Nov 2017
#90,https://mailchi.mp/ca625bd2c262/90,04 Nov 2017
Sports and Games Special #89,https://mailchi.mp/2de47a6c0a40/89-sports-and-video-games-special,31 Oct 2017
#88,https://mailchi.mp/f7b0644a012c/88,28 Oct 2017
#87,https://mailchi.mp/ee93bca4253b/87,21 Oct 2017
#86,https://mailchi.mp/d4a09b703a60/86-a-good-reading-week,14 Oct 2017
AI Special #85,https://mailchi.mp/0ee8bfd9343f/85-ai-special-edition,10 Oct 2017
#84,https://mailchi.mp/74fa23833703/84,07 Oct 2017
#83,https://mailchi.mp/0377d1a07a17/83-a-lot-of-food,30 Sep 2017
Literature Special #82,https://mailchi.mp/25bcc0a1e6b6/82-literature-special,26 Sep 2017
#81,https://mailchi.mp/d1cc52301dd3/81-an-auspicious-number,23 Sep 2017
Science Special #80,https://mailchi.mp/e916d1119776/80-science-special,19 Sep 2017
#79,https://mailchi.mp/5a70df17941b/79,16 Sep 2017
#78,https://mailchi.mp/2e5c4a0d1b8e/78-a-heady-mix,09 Sep 2017
#77,https://mailchi.mp/a256db7513da/kats-kable-77-something-of-everything,02 Sep 2017
#76,https://mailchi.mp/aedd61456e0e/76-hurried-by-hurricane-harvey,26 Aug 2017
#75,https://mailchi.mp/ae99c8cb130e/kats-kable-75-a-mix-of-things,19 Aug 2017
Env. and Climate Special #74,https://mailchi.mp/a8952fd2ef33/kats-kable-74-environmentclimate-special,15 Aug 2017
#73,https://mailchi.mp/a130ed7c660b/kats-kable-73-new-time-zone-same-time,12 Aug 2017
#72,https://mailchi.mp/9899fb55b8b7/72-americans-cubans-the-internet-and-more,05 Aug 2017
#71,https://mailchi.mp/ca15c2e6ebb0/71,01 Aug 2017
